^K:\РАБ СТОЛ\COMPILEPROJECT\COMPILEPROJECT\LEXER.CPP|K:\РАБ СТОЛ\COMPILEPROJECT\COMPILEPROJECT\MAIN.CPP|K:\РАБ СТОЛ\COMPILEPROJECT\COMPILEPROJECT\PARSER.CPP
K:\раб стол\COMPILEPROJECT\COMPILEPROJECT\X64\DEBUG\VC120.PDB
K:\раб стол\COMPILEPROJECT\COMPILEPROJECT\X64\DEBUG\VC120.IDB
K:\Раб стол\COMPILEPROJECT\COMPILEPROJECT\X64\DEBUG\LEXER.OBJ
K:\Раб стол\COMPILEPROJECT\COMPILEPROJECT\X64\DEBUG\MAIN.OBJ
^K:\РАБ СТОЛ\COMPILEPROJECT\COMPILEPROJECT\LEXER.CPP
K:\РАБ СТОЛ\COMPILEPROJECT\COMPILEPROJECT\X64\DEBUG\VC120.PDB
^K:\РАБ СТОЛ\COMPILEPROJECT\COMPILEPROJECT\MAIN.CPP
K:\РАБ СТОЛ\COMPILEPROJECT\COMPILEPROJECT\X64\DEBUG\VC120.PDB
^K:\РАБ СТОЛ\COMPILEPROJECT\COMPILEPROJECT\PARSER.CPP
K:\РАБ СТОЛ\COMPILEPROJECT\COMPILEPROJECT\X64\DEBUG\VC120.PDB
^K:\РАБ СТОЛ\COMPILEPROJECT\COMPILEPROJECT\IDENT.CPP|K:\РАБ СТОЛ\COMPILEPROJECT\COMPILEPROJECT\LEXER.CPP|K:\РАБ СТОЛ\COMPILEPROJECT\COMPILEPROJECT\MAIN.CPP|K:\РАБ СТОЛ\COMPILEPROJECT\COMPILEPROJECT\PARSER.CPP|K:\РАБ СТОЛ\COMPILEPROJECT\COMPILEPROJECT\PARSERNEUTRALIZATION.CPP
K:\раб стол\COMPILEPROJECT\COMPILEPROJECT\X64\DEBUG\VC120.PDB
K:\раб стол\COMPILEPROJECT\COMPILEPROJECT\X64\DEBUG\VC120.IDB
K:\Раб стол\COMPILEPROJECT\COMPILEPROJECT\X64\DEBUG\IDENT.OBJ
K:\Раб стол\COMPILEPROJECT\COMPILEPROJECT\X64\DEBUG\LEXER.OBJ
K:\Раб стол\COMPILEPROJECT\COMPILEPROJECT\X64\DEBUG\MAIN.OBJ
K:\Раб стол\COMPILEPROJECT\COMPILEPROJECT\X64\DEBUG\PARSER.OBJ
K:\Раб стол\COMPILEPROJECT\COMPILEPROJECT\X64\DEBUG\PARSERNEUTRALIZATION.OBJ
^K:\РАБ СТОЛ\COMPILEPROJECT\COMPILEPROJECT\IDENT.CPP
K:\РАБ СТОЛ\COMPILEPROJECT\COMPILEPROJECT\X64\DEBUG\VC120.PDB
^K:\РАБ СТОЛ\COMPILEPROJECT\COMPILEPROJECT\PARSERNEUTRALIZATION.CPP
K:\РАБ СТОЛ\COMPILEPROJECT\COMPILEPROJECT\X64\DEBUG\VC120.PDB
^K:\РАБ СТОЛ\COMPILEPROJECT\COMPILEPROJECT\IDENT.CPP|K:\РАБ СТОЛ\COMPILEPROJECT\COMPILEPROJECT\MAIN.CPP|K:\РАБ СТОЛ\COMPILEPROJECT\COMPILEPROJECT\PARSER.CPP|K:\РАБ СТОЛ\COMPILEPROJECT\COMPILEPROJECT\SEMANTIC.CPP|K:\РАБ СТОЛ\COMPILEPROJECT\COMPILEPROJECT\TYPE.CPP
K:\раб стол\COMPILEPROJECT\COMPILEPROJECT\X64\DEBUG\VC120.PDB
K:\раб стол\COMPILEPROJECT\COMPILEPROJECT\X64\DEBUG\VC120.IDB
^K:\РАБ СТОЛ\COMPILEPROJECT\COMPILEPROJECT\SEMANTIC.CPP
K:\РАБ СТОЛ\COMPILEPROJECT\COMPILEPROJECT\X64\DEBUG\VC120.PDB
^K:\РАБ СТОЛ\COMPILEPROJECT\COMPILEPROJECT\TYPE.CPP
K:\РАБ СТОЛ\COMPILEPROJECT\COMPILEPROJECT\X64\DEBUG\VC120.PDB
